1,true,Kratos,PA,6.75,Tile,200.0,3.5,4.15,700.0,830.0000000000001,10327.5,11857.5
2,true,Kratos,OH,6.25,Carpet,1233.0,2.25,2.1,2774.25,2589.3,33522.1875,38885.7375
3,false,Li,OH,6.25,Carpet,123.0,2.25,2.1,276.75,258.3,3344.0624999999995,3879.1124999999997
4,false,Xin,OH,6.25,Carpet,123.0,2.25,2.1,276.75,258.3,3344.0624999999995,3879.1124999999997